{	
	"users": [{
		"id": "noUser",
		"name": "No SSN"
	},{
		"id": "newUser",
		"name": "New User"
	},{
		"id": "existUser",
		"name": "Existing User"
	}],
	"details":[{
		"id":"srkDetails",
		"name":"SRK"	
	},{
		"id":"mvcDetails",
		"name":"MVC"	
	}]
	
}