{
	"release": [{
			"id": "s4",
			"name": "Sprint 4"
		},{
			"id": "demo-sept",
			"name": "Demo-Sept"
		}, {
			"id": "s6",
			"name": "Sprint6"
		}, {
			"id": "s7",
			"name": "Sprint7"
		}, {
			"id": "s8",
			"name": "Sprint8"
		}, {
			"id": "s10",
			"name": "Sprint10"
		}, {
			"id": "s11",
			"name": "Sprint11"
		},{
			"id": "demo",
			"name": "Demo-Dec"
		}, {
			"id": "s13",
			"name": "Sprint13"
		}, {
			"id": "s16",
			"name": "Sprint16"
		}, {
			"id": "demo-mar",
			"name": "Demo-Mar"
		},{
			"id": "s18",
			"name": "Sprint G"
		},{
			"id": "sprintH",
			"name": "Sprint H"
		},{
			"id": "sprintI",
			"name": "Sprint I"
		},{
			"id": "sprintJ",
			"name": "Sprint J"
		},{
			"id": "demo-july",
			"name": "Demo-July"
		},{
			"id": "sprintK",
			"name": "Sprint K"
		}],
	"user": [{
			"id": "new",
			"name": "New User"
		}, {
			"id": "exist",
			"name": "Existing User"
		}],
	"s6ASDrio": [{
			"id": "noplan",
			"name": "No Plans"
		}]
}