{	
	"users": [{
		"id": "noUser",
		"name": "No SSN"
	},{
		"id": "newUser",
		"name": "New User"
	},{
		"id": "existUser",
		"name": "Existing User"
	}],
	"details":[{
		"id":"srkDcaDetails",
		"name":"SRK DCA"	
	},{
		"id":"srkNonDcaDetails",
		"name":"SRK Non-DCA"	
	},{
		"id":"mvcDetails",
		"name":"MVC"	
	}],
	"suny_rpe":[{
		"id":"rpeYes",
		"name":"Yes"
	},{
		"id":"rpeNo",
		"name":"No"	
	}]
	
}